[gd_scene load_steps=4 format=2]

[ext_resource path="res://Scripts/Rollover.gd" type="Script" id=1]
[ext_resource path="res://Assets/Materials/Border/Playfield Border Trim.tres" type="Material" id=2]

[sub_resource type="CylinderShape" id=1]
radius = 0.04
height = 0.08

[node name="Rollover" type="Spatial"]
script = ExtResource( 1 )

[node name="CSGCylinder" type="CSGCylinder" parent="."]
visible = false
radius = 0.041
height = 0.001
sides = 10
material = ExtResource( 2 )

[node name="Area" type="Area" parent="."]
transform = Transform( 1, 0, 0, 0, 1, 0, 0, 0, 1, 0, 0.041, 0 )
collision_layer = 2

[node name="CollisionShape" type="CollisionShape" parent="Area"]
shape = SubResource( 1 )
[connection signal="body_entered" from="Area" to="." method="onBodyEntered"]
